…
1. Put "meal" and "attendance" as their own columns, with the events living in a new column.


```r
(guest_long <- guest %>% 
  pivot_longer(cols      = c(-party, -name), 
               names_to  = c('.value', 'event'),
               names_sep = '_'))
```

```
## # A tibble: 90 x 5
##    party name            event   meal       attendance
##    <dbl> <chr>           <chr>   <chr>      <chr>     
##  1     1 Sommer Medrano  wedding PENDING    PENDING   
##  2     1 Sommer Medrano  brunch  PENDING    PENDING   
##  3     1 Sommer Medrano  golf    <NA>       PENDING   
##  4     1 Phillip Medrano wedding vegetarian CONFIRMED 
##  5     1 Phillip Medrano brunch  Menu C     CONFIRMED 
##  6     1 Phillip Medrano golf    <NA>       CONFIRMED 
##  7     1 Blanka Medrano  wedding chicken    CONFIRMED 
##  8     1 Blanka Medrano  brunch  Menu A     CONFIRMED 
##  9     1 Blanka Medrano  golf    <NA>       CONFIRMED 
## 10     1 Emaan Medrano   wedding PENDING    PENDING   
## # ... with 80 more rows
```

2. Use `tidyr::separate()` to split the name into two columns: "first" and 
"last". Then, re-unite them with `tidyr::unite()`.


```r
guest_long %>% 
  separate(col = name,
           into = c('first_name', 'last_name'),
           sep = ' ')
```

```
## # A tibble: 90 x 6
##    party first_name last_name event   meal       attendance
##    <dbl> <chr>      <chr>     <chr>   <chr>      <chr>     
##  1     1 Sommer     Medrano   wedding PENDING    PENDING   
##  2     1 Sommer     Medrano   brunch  PENDING    PENDING   
##  3     1 Sommer     Medrano   golf    <NA>       PENDING   
##  4     1 Phillip    Medrano   wedding vegetarian CONFIRMED 
##  5     1 Phillip    Medrano   brunch  Menu C     CONFIRMED 
##  6     1 Phillip    Medrano   golf    <NA>       CONFIRMED 
##  7     1 Blanka     Medrano   wedding chicken    CONFIRMED 
##  8     1 Blanka     Medrano   brunch  Menu A     CONFIRMED 
##  9     1 Blanka     Medrano   golf    <NA>       CONFIRMED 
## 10     1 Emaan      Medrano   wedding PENDING    PENDING   
## # ... with 80 more rows
```

```r
  unite(data = guest_long,
        col = 'full_name',
        name,
           sep = ' ')
```

```
## # A tibble: 90 x 5
##    party full_name       event   meal       attendance
##    <dbl> <chr>           <chr>   <chr>      <chr>     
##  1     1 Sommer Medrano  wedding PENDING    PENDING   
##  2     1 Sommer Medrano  brunch  PENDING    PENDING   
##  3     1 Sommer Medrano  golf    <NA>       PENDING   
##  4     1 Phillip Medrano wedding vegetarian CONFIRMED 
##  5     1 Phillip Medrano brunch  Menu C     CONFIRMED 
##  6     1 Phillip Medrano golf    <NA>       CONFIRMED 
##  7     1 Blanka Medrano  wedding chicken    CONFIRMED 
##  8     1 Blanka Medrano  brunch  Menu A     CONFIRMED 
##  9     1 Blanka Medrano  golf    <NA>       CONFIRMED 
## 10     1 Emaan Medrano   wedding PENDING    PENDING   
## # ... with 80 more rows
```
…
5. Put the data back to the way it was.


```r
guest_long %>% 
  pivot_wider(id_cols     = c(party, name), 
              names_from  = event,
              names_sep   = "_", 
              values_from = c(attendance, meal))
```

```
## # A tibble: 30 x 8
##    party name  attendance_wedd~ attendance_brun~ attendance_golf meal_wedding
##    <dbl> <chr> <chr>            <chr>            <chr>           <chr>       
##  1     1 Somm~ PENDING          PENDING          PENDING         PENDING     
##  2     1 Phil~ CONFIRMED        CONFIRMED        CONFIRMED       vegetarian  
##  3     1 Blan~ CONFIRMED        CONFIRMED        CONFIRMED       chicken     
##  4     1 Emaa~ PENDING          PENDING          PENDING         PENDING     
##  5     2 Blai~ CONFIRMED        CONFIRMED        CONFIRMED       chicken     
##  6     2 Nige~ CANCELLED        CANCELLED        CANCELLED       <NA>        
##  7     3 Sine~ PENDING          PENDING          PENDING         PENDING     
##  8     4 Ayra~ PENDING          PENDING          PENDING         vegetarian  
##  9     5 Atla~ PENDING          PENDING          PENDING         PENDING     
## 10     5 Denz~ CONFIRMED        CONFIRMED        CONFIRMED       fish        
## # ... with 20 more rows, and 2 more variables: meal_brunch <chr>,
## #   meal_golf <chr>
```
…
